Find the best learner in terms of RMSE among specified learners using cross validation — fit_best_learner • postcard
…
# Use it fx. to predict the "control outcome" in the 2-armed RCT
predict(fit, new_data = dat_rct)
#> # A tibble: 100 × 1
#>    .pred
#>    <dbl>
#>  1 2.25 
#>  2 5.50 
#>  3 0.217
#>  4 4.99 
#>  5 6.22 
#>  6 7.25 
#>  7 1.42 
#>  8 4.51 
#>  9 4.52 
#> 10 4.44 
#> # ℹ 90 more rows
…
